[{
    "model": "users.posts",
    "pk": 1,
    "fields": {
      "name": "member"
    }
  },
  {
    "model": "users.posts",
    "pk": 2,
    "fields": {
      "name": "highermember"
    }
  },
  {
    "model": "users.role",
    "pk": 1,
    "fields": {
      "name": "member"
    }
  },
  {
    "model": "users.role",
    "pk": 2,
    "fields": {
      "name": "comittee_admin"
    }
  }
]